[
  {
    "id": 1,
    "group": 1,
    "region": "Көкшетау қ.",
    "fio": "Сәбитов Әлібек Темірғалиұлы",
    "address": "Көкшетау қ. Байтұрсынов көш., 70/2",
    "email": "alibeksab@mail.ru",
    "phone": "87052266143",
    "schedule": "Пн-Пт – 10:00 – 17:00",
    "lunch": "13:00 – 14:00"
  },
  {
    "id": 2,
    "group": 1,
    "region": "Көкшетау қ.",
    "fio": "Қанапиянова Майра Қайырбекқызы",
    "address": " ",
    "email": "arai.a.17@mail.ru",
    "phone": "87017284022",
    "schedule": "Пн-Пт – 10:00 – 17:00",
    "lunch": "13:00 – 14:00"
  },
  {
    "id": 3,
    "group": 1,
    "region": "Степногорск",
    "fio": "Шипиленко Андрей Анатольевич",
    "address": "Степногорск қ., 3-17-32",
    "email": "advo_2030@mail.ru",
    "phone": "87017284216",
    "schedule": "Пн-Пт – 10:00 – 17:00",
    "lunch": "13:00 – 14:00"
  },
  {
    "id": 4,
    "group": 1,
    "region": "Ақкөл ауданы",
    "fio": "Ахметова Самал Айтпайқызы",
    "address": "Ақкөл қ., Шегебай Ұзақбайұлы көш., 5, 1-пәтер,",
    "email": "ahmetova.samal@bk.ru",
    "phone": "87015711520",
    "schedule": "Пн-Пт – 10:00 – 17:00",
    "lunch": "13:00 – 14:00"
  },
  {
    "id": 5,
    "group": 1,
    "region": "Ақкөл ауданы",
    "fio": "Әлмұрат Дәулет Нұрмұхамбетұлы",
    "address": " ",
    "email": "dalmuratov@bk.ru",
    "phone": "87017358377",
    "schedule": "Пн-Пт – 10:00 – 17:00",
    "lunch": "13:00 – 14:00"
  },
  {
    "id": 6,
    "group": 1,
    "region": "Ақкөл ауданы",
    "fio": "Байниязова Әсем Маратқызы",
    "address": " ",
    "email": " ",
    "phone": "87076621631",
    "schedule": "Пн-Пт – 10:00 – 17:00",
    "lunch": "13:00 – 14:00"
  },
  {
    "id": 7,
    "group": 1,
    "region": "Ақкөл ауданы",
    "fio": "Жүсіпова Салтанат Ермекқызы",
    "address": " ",
    "email": "87026804256@mail.ru ",
    "phone": "87017317476",
    "schedule": "Пн-Пт – 10:00 – 17:00",
    "lunch": "13:00 – 14:00"
  },
  {
    "id": 8,
    "group": 1,
    "region": "Біржан-сал ауданы",
    "fio": "Ұстажанова Сара Амантайқызы",
    "address": " ",
    "email": "stepnyak-83@mail.ru",
    "phone": " 87026066310",
    "schedule": "Пн-Пт – 10:00 – 17:00",
    "lunch": "13:00 – 14:00"
  },
  {
    "id": 9,
    "group": 1,
    "region": "Бұланды ауданы",
    "fio": "Ибраев Сансызбай Балташұлы",
    "address": "Макин қ., С. Сейфуллин көш., 18б, 3-кабинет",
    "email": "sansybay.ibraev@mail.ru",
    "phone": " 87014682574",
    "schedule": "Пн-Пт – 10:00 – 17:00",
    "lunch": "13:00 – 14:00"
  },
  {
    "id": 10,
    "group": 1,
    "region": "Бұланды ауданы",
    "fio": "Омаров Ақылжан Әлтайұлы",
    "address": " ",
    "email": " ",
    "phone": " ",
    "schedule": "Пн-Пт – 10:00 – 17:00",
    "lunch": "13:00 – 14:00"
  },
  {
    "id": 11,
    "group": 1,
    "region": "Егіндікөл ауданы",
    "fio": "Бекбауова Жанар Дарханбекқызы",
    "address": " ",
    "email": "sledak_kz@inbox.ru",
    "phone": " 87022898733 ",
    "schedule": "Пн-Пт – 10:00 – 17:00",
    "lunch": "13:00 – 14:00"
  },
  {
    "id": 12,
    "group": 1,
    "region": "Егіндікөл ауданы",
    "fio": "Жахина Алмагүл Қазбекқызы",
    "address": "Ерейментау қ., Бөгенбай батыр көш., 97, 4-пәтер",
    "email": "zhakhina_alma@mail.ru ",
    "phone": " 87013725964",
    "schedule": "Пн-Пт – 10:00 – 17:00",
    "lunch": "13:00 – 14:00"
  },
  {
    "id": 13,
    "group": 1,
    "region": "Егіндікөл ауданы",
    "fio": "Жахина Алмагүл Қазбекқызы",
    "address": " ",
    "email": " ",
    "phone": " 87026245564 ",
    "schedule": "Пн-Пт – 10:00 – 17:00",
    "lunch": "13:00 – 14:00"
  },
  {
    "id": 14,
    "group": 1,
    "region": "Жақсы ауданы",
    "fio": "Қалыков Қайыржан Ермекұлы",
    "address": " ",
    "email": "Kaiyrzhan_2013@mail.ru",
    "phone": "87023092113, 87054261412",
    "schedule": "Пн-Пт – 10:00 – 17:00",
    "lunch": "13:00 – 14:00"
  },
  {
    "id": 15,
    "group": 1,
    "region": "Жақсы ауданы",
    "fio": "Қасымов Ғалымжан Мұрзалайұлы",
    "address": "Державинск қ., Захаров көш., 31, 13-кабинет",
    "email": "Gkgge@mail.ru",
    "phone": "87054269596",
    "schedule": "Пн-Пт – 10:00 – 17:00",
    "lunch": "13:00 – 14:00"
  },
  {
    "id": 16,
    "group": 1,
    "region": "Зеренді ауданы",
    "fio": "Қабдрахманова Сайрангүл Құлұмбетқызы",
    "address": " ",
    "email": "arai.a.17@mail.ru",
    "phone": "87055983581",
    "schedule": "Пн-Пт – 10:00 – 17:00",
    "lunch": "13:00 – 14:00"
  },
  {
    "id": 17,
    "group": 1,
    "region": "Қорғалжын ауданы",
    "fio": "Молдажаров Бақытбек Жармұхаметұлы",
    "address": " ",
    "email": "bakitbek-1981@mail.ru",
    "phone": "+77071076735",
    "schedule": "Пн-Пт – 10:00 – 17:00",
    "lunch": "13:00 – 14:00"
  },
  {
    "id": 18,
    "group": 1,
    "region": "Сандықтау ауданы",
    "fio": "Еслямбек Олжас Маралұлы",
    "address": " ",
    "email": "87026804256@mail.ru",
    "phone": "87026804256",
    "schedule": "Пн-Пт – 10:00 – 17:00",
    "lunch": "13:00 – 14:00"
  },
  {
    "id": 19,
    "group": 1,
    "region": "Шортанды ауданы",
    "fio": "Бабич Татьяна Олеговна",
    "address": "Шортанды ауылы, Абылай хан көш., 23-үй",
    "email": "tatyana.babich.76@list.ru",
    "phone": "87016719310",
    "schedule": "Пн-Пт – 10:00 – 17:00",
    "lunch": "13:00 – 14:00"
  },
  {
    "id": 20,
    "group": 1,
    "region": "Целиноград ауданы",
    "fio": "Бақтығұлова Фарида Мұратқызы",
    "address": "Ташенов көш., 8, 110-каб.",
    "email": "farida.baktygulova@mail.ru",
    "phone": "87013101111",
    "schedule": "Пн-Пт – 10:00 – 17:00",
    "lunch": "13:00 – 14:00"
  },
  {
    "id": 21,
    "group": 4,
    "region": "Ақтөбе қ.",
    "fio": "Абдулина Эльвира Мақсатқызы",
    "address": "Облыстық жастар ресурстық орталығы",
    "email": " ",
    "phone": "87015708718",
    "schedule": "Пн-Пт – 10:00 – 17:00",
    "lunch": "13:00 – 14:00"
  },
  {
    "id": 22,
    "group": 4,
    "region": "Ақтөбе қ.",
    "fio": "Сарбасова Жанар Мырзабекқызы",
    "address": "11-ш/а, 114-үй",
    "email": " ",
    "phone": "77055397744",
    "schedule": "Пн-Пт – 10:00 – 17:00",
    "lunch": "13:00 – 14:00"
  },
  {
    "id": 23,
    "group": 4,
    "region": "Алға ауданы",
    "fio": "Сұлтанов Мерғали Жаңағалиұлы",
    "address": "Алға аудандық Жастар ресурстық орталығы, Ақтөбе облысы, Алға ауданы, Алға қаласы, Байтұрсынов көшесі, 20",
    "email": "mergali@inbox.ru ",
    "phone": "87053813489 87073960473",
    "schedule": "Пн-Пт – 10:00 – 17:00",
    "lunch": "13:00 – 14:00"
  },
  {
    "id": 24,
    "group": 4,
    "region": "Әйтеке би ауданы",
    "fio": "Матаева Кәмила",
    "address": "Жастар ресурстық орталығы, Әйтеке би ауданы, Жүргенов көшесі, 67 а, «Нұр Отан» партиясы ғимараты ішінде №1 кабинет",
    "email": " ",
    "phone": " 87712927634",
    "schedule": "Пн-Пт – 10:00 – 17:00",
    "lunch": "13:00 – 14:00"
  },
  {
    "id": 25,
    "group": 4,
    "region": "Байғанин ауданы",
    "fio": "Ізтұрғанов Қайрат Ерпанұлы" ,
    "address": "Жастар ресурстық орталығы, Байғанин ауданы, Қарауылкелді ауылы, Ә. Төленов көшесі, 15в",
    "email": " ",
    "phone": " ",
    "schedule": "Пн-Пт – 10:00 – 17:00",
    "lunch": "13:00 – 14:00"
  },
  {
    "id": 26,
    "group": 4,
    "region": "Қарғалы ауданы",
    "fio": "Тастеміров Бауыржан Зарлықұлы" ,
    "address": "Жастар ресурстық орталығы, Қарғалы ауданы, Бадамша ауылы, Пацаев көшесі, 3 Б",
    "email": " ",
    "phone": "87054729172",
    "schedule": "Пн-Пт – 10:00 – 17:00",
    "lunch": "13:00 – 14:00"
  },
  {
    "id": 27,
    "group": 4,
    "region": "Қарғалы ауданы",
    "fio": "Жанаманова Жұмагүл Табылдықызы",
    "address": "Қобда ауданы, Жастар ресурстық орталығы, Көпжасаров көшесі, 33",
    "email": " ",
    "phone": "87058182542",
    "schedule": "Пн-Пт – 10:00 – 17:00",
    "lunch": "13:00 – 14:00"
  },
  {
    "id": 28,
    "group": 4,
    "region": "Мәртөк ауданы",
    "fio": "Қошқарбаев Дәулет Алдиярұлы",
    "address": "Мәртөк ауданы, Мәртөк ауылы, Жастар ресурстық орталығы, Сәкен Сейфуллин көшесі, 38",
    "email": " ",
    "phone": "87474458432",
    "schedule": "Пн-Пт – 10:00 – 17:00",
    "lunch": "13:00 – 14:00"
  },
  {
    "id": 29,
    "group": 4,
    "region": "Мұғалжар ауданы",
    "fio": "Құлжанов Жанболат Тілешұлы",
    "address": "Мұғалжар ауданы, Қандыағаш қ. Баймұхамбетов к-сі, 20а",
    "email": " ",
    "phone": "+77015129300 +77711227768",
    "schedule": "Пн-Пт – 10:00 – 17:00",
    "lunch": "13:00 – 14:00"
  },
  {
    "id": 29,
    "group": 4,
    "region": "Мұғалжар ауданы",
    "fio": "Құлжанов Жанболат Тілешұлы",
    "address": "Мұғалжар ауданы, Қандыағаш қ. Баймұхамбетов к-сі, 20а",
    "email": " ",
    "phone": "+77015129300 +77711227768",
    "schedule": "Пн-Пт – 10:00 – 17:00",
    "lunch": "13:00 – 14:00"
  },
  {
    "id": 30,
    "group": 4,
    "region": "Ойыл ауданы",
    "fio": "Жұмағамбетов Амангелді Бөпеғалиұлы",
    "address": "Ойыл ауданы, Б. Жолмырзаев көшесі, 16",
    "email": " ",
    "phone": "87054959503",
    "schedule": "Пн-Пт – 10:00 – 17:00",
    "lunch": "13:00 – 14:00"
  },
  {
    "id": 31,
    "group": 4,
    "region": "Темір ауданы",
    "fio": "Айтжанов Ислан",
    "address": "Темір ауданы, Шұбарқұдық, Кереев көш., 4",
    "email": " ",
    "phone": "87018408974",
    "schedule": "Пн-Пт – 10:00 – 17:00",
    "lunch": "13:00 – 14:00"
  },
  {
    "id": 32,
    "group": 4,
    "region": "Шалқар ауданы",
    "fio": "Ілиясов Шалқарбек Ізбасарұлы",
    "address": "Шалқар ауданы,  Шалқар қаласы, Әйтеке би к-сі, 47 а",
    "email": " ",
    "phone": "87788056520",
    "schedule": "Пн-Пт – 10:00 – 17:00",
    "lunch": "13:00 – 14:00"
  },
  {
    "id": 33,
    "group": 4,
    "region": "Хромтау ауданы",
    "fio": "Оразбаев Түгелбай Кәкімұлы",
    "address": "Хромтау ауданы, Хромтау қ., Республика көшесі, 784",
    "email": " ",
    "phone": "87778005243",
    "schedule": "Пн-Пт – 10:00 – 17:00",
    "lunch": "13:00 – 14:00"
  },
  {
    "id": 34,
    "group": 4,
    "region": "Ырғыз ауданы",
    "fio": "Байжиен Сабыржан Сәндібекұлы",
    "address": "Ырғыз ауданы, Ырғыз ауылы, Әбілқайыр көшесі, 27",
    "email": "Sabur_2020@mail.ru",
    "phone": "87082608647, 87711089006",
    "schedule": "Пн-Пт – 10:00 – 17:00",
    "lunch": "13:00 – 14:00"
  },
  {
    "id": 35,
    "group": 5,
    "region": "Талдықорған қ.",
    "fio": "Қасенбаев Ержан Маратұлы",
    "address": "Талдықорған қ., Қонаев көш., 47",
    "email": " ",
    "phone": "87789100964",
    "schedule": "Пн-Пт – 10:00 – 17:00",
    "lunch": "13:00 – 14:00"
  },
  {
    "id": 36,
    "group": 5,
    "region": "Текелі қ.",
    "fio": "Рахимов Тимур Әділбайұлы",
    "address": "Текелі қ., Абылайхан көш., 29/1",
    "email": " ",
    "phone": "87772335401, 87077800135",
    "schedule": "Пн-Пт – 10:00 – 17:00",
    "lunch": "13:00 – 14:00"
  },
  {
    "id": 37,
    "group": 5,
    "region": "Қапшағай қ.",
    "fio": "Қанай Дастан Дулатұлы",
    "address": "Қапашағай қ., 1-ш/а, 19-үй,",
    "email": " ",
    "phone": "87072682483",
    "schedule": "Пн-Пт – 10:00 – 17:00",
    "lunch": "13:00 – 14:00"
  },
  {
    "id": 38,
    "group": 5,
    "region": "Ақсу ауданы",
    "fio": "Ахметова Лаура Саржанқызы",
    "address": "Жансүгіров ауылы, Қабанбай батыр көш., 42",
    "email": " ",
    "phone": " ",
    "schedule": "Пн-Пт – 10:00 – 17:00",
    "lunch": "13:00 – 14:00"
  },
  {
    "id": 39,
    "group": 5,
    "region": "Алакөл ауданы",
    "fio": "Молдахметова Гульмира Омарханқызы",
    "address": "Алакөл ауданы, Үшарал қаласы, Қонаев көш., 76",
    "email": " ",
    "phone": " ",
    "schedule": "Пн-Пт – 10:00 – 17:00",
    "lunch": "13:00 – 14:00"
  },
  {
    "id": 40,
    "group": 5,
    "region": "Балқаш ауданы",
    "fio": "Асанов Бауыржан Зәкейұлы",
    "address": "Балқаш ауданы, Бақанас ауылы, Бижанов көш., 70 А",
    "email": " ",
    "phone": "87770283772",
    "schedule": "Пн-Пт – 10:00 – 17:00",
    "lunch": "13:00 – 14:00"
  },
  {
    "id": 41,
    "group": 5,
    "region": "Еңбекшіқазақ ауданы",
    "fio": "Тұрманбетов Қосанәлі Орынбекұлы",
    "address": "Еңбекшіқазақ ауданы, Есік қ., Тоқатаев көш., 112",
    "email": " ",
    "phone": "87772476857",
    "schedule": "Пн-Пт – 10:00 – 17:00",
    "lunch": "13:00 – 14:00"
  },
  {
    "id": 42,
    "group": 5,
    "region": "Ескелді ауданы",
    "fio": "Тәшенов Азат Жанатұлы",
    "address": "Ескелді ауданы, Қарабұлақ ауылы, Оразбеков көш., 8 А",
    "email": " ",
    "phone": "87011500027",
    "schedule": "Пн-Пт – 10:00 – 17:00",
    "lunch": "13:00 – 14:00"
  },
  {
    "id": 43,
    "group": 5,
    "region": "Жамбыл ауданы",
    "fio": "Семейғали Бауыржан Ерғалиұлы",
    "address": "Жамбыл ауданы, Ұзынағаш ауылы, Абай көш., 47",
    "email": " ",
    "phone": "87005254025",
    "schedule": "Пн-Пт – 10:00 – 17:00",
    "lunch": "13:00 – 14:00"
  },
  {
    "id": 44,
    "group": 5,
    "region": "Іле ауданы",
    "fio": "Есболатова Бақытжан Тосыбайқызы",
    "address": "Іле ауданы, Өтеген батыр ауылы, З. Батталханов көш., 13",
    "email": " ",
    "phone": "87021960325",
    "schedule": "Пн-Пт – 10:00 – 17:00",
    "lunch": "13:00 – 14:00"
  },
  {
    "id": 45,
    "group": 5,
    "region": "Қарасай ауданы",
    "fio": "Өмірбай Дәулет Молдағожаұлы",
    "address": "Қарасай ауданы, Қаскелең қаласы, Абылай хан көш., 213",
    "email": " ",
    "phone": " ",
    "schedule": "Пн-Пт – 10:00 – 17:00",
    "lunch": "13:00 – 14:00"
  },
  {
    "id": 46,
    "group": 5,
    "region": "Қаратал ауданы",
    "fio": "Перелевская Нина Николаевна",
    "address": "Қаратал ауданы, Үштөбе қ., Қабанбай батыр көш., 51",
    "email": " ",
    "phone": "87776764002",
    "schedule": "Пн-Пт – 10:00 – 17:00",
    "lunch": "13:00 – 14:00"
  },
  {
    "id": 47,
    "group": 5,
    "region": "Кеген ауданы",
    "fio": "Сатыбалдиев Аскелен",
    "address": "Кеген ауданы, Кеген ауылы, Райымбек батыр көш., 63 В",
    "email": " ",
    "phone": "87772751952",
    "schedule": "Пн-Пт – 10:00 – 17:00",
    "lunch": "13:00 – 14:00"
  },
  {
    "id": 48,
    "group": 5,
    "region": "Кербұлақ ауданы",
    "fio": "Қуаныш Әбдіманатұлы",
    "address": "Сарыөзек ауылы, Мәметов көш., 1в",
    "email": " ",
    "phone": "87055118896",
    "schedule": "Пн-Пт – 10:00 – 17:00",
    "lunch": "13:00 – 14:00"
  },
  {
    "id": 49,
    "group": 5,
    "region": "Көксу ауданы",
    "fio": "Дүйсенаева Айнұр Қуанышқызы",
    "address": "Көксу ауданы, Балпық би ауылы, Мырзабеков көш., 38",
    "email": " ",
    "phone": "87016273378",
    "schedule": "Пн-Пт – 10:00 – 17:00",
    "lunch": "13:00 – 14:00"
  },
  {
    "id": 50,
    "group": 5,
    "region": "Панфилов ауданы",
    "fio": "Әбдіқадыров Бауыржан Бақтыбайұлы",
    "address": "Панфилов ауданы, Жаркент қ., Головацкий көш., 129 а,",
    "email": " ",
    "phone": "87028413802, 87078413806",
    "schedule": "Пн-Пт – 10:00 – 17:00",
    "lunch": "13:00 – 14:00"
  },
  {
    "id": 51,
    "group": 5,
    "region": "Райымбек ауданы",
    "fio": "Оразбек Меруерт",
    "address": "Райымбек ауданы, Нарынқол ауылы, Абай көш., 100",
    "email": " ",
    "phone": "87022913637",
    "schedule": "Пн-Пт – 10:00 – 17:00",
    "lunch": "13:00 – 14:00"
  },
  {
    "id": 52,
    "group": 5,
    "region": "Сарқан ауданы",
    "fio": "Жұмақанов Берік Жеңісұлы",
    "address": "Сарқан ауданы, Сарқан қаласы, Бұғыбай батыр көш., 4",
    "email": " ",
    "phone": "87077604185",
    "schedule": "Пн-Пт – 10:00 – 17:00",
    "lunch": "13:00 – 14:00"
  },
  {
    "id": 53,
    "group": 5,
    "region": "Талғар ауданы",
    "fio": "Олке Палина Сергеевна",
    "address": "Талғар қ., Лермонтов көш., 53А, 2-қабат, 6-кабинет",
    "email": " ",
    "phone": "87772996873",
    "schedule": "Пн-Пт – 10:00 – 17:00",
    "lunch": "13:00 – 14:00"
  },
  {
    "id": 54,
    "group": 5,
    "region": "Ұйғыр ауданы",
    "fio": "Жанбазиева Бақытгүл Мәденқызы",
    "address": "Ұйғыр ауданы, Шонжа ауылы, Арзиев көш., 65",
    "email": " ",
    "phone": "87026519786",
    "schedule": "Пн-Пт – 10:00 – 17:00",
    "lunch": "13:00 – 14:00"
  },
  {
    "id": 55,
    "group": 6,
    "region": "Атырау қ.",
    "fio": "Ұлжағалиева Дарья Сергеевна",
    "address": "Атырау қ., Нұрсая көш., 23, Жастар ресурстық орталығы",
    "email": " ",
    "phone": "87073110487",
    "schedule": "Пн-Пт – 10:00 – 17:00",
    "lunch": "13:00 – 14:00"
  },
  {
    "id": 56,
    "group": 6,
    "region": "Жылыой ауданы",
    "fio": "Атшыбаева Раушан",
    "address": "Атырау облысы,  Жылыой ауданы, Құлсары қ., Жылыой РЮК Махамбет даңғ., 44-14",
    "email": " ",
    "phone": "87011248979",
    "schedule": "Пн-Пт – 10:00 – 17:00",
    "lunch": "13:00 – 14:00"
  },
  {
    "id": 57,
    "group": 6,
    "region": "Құрманғазы ауданы",
    "fio": "Сапарова Ұлмекен Қибатоллақызы",
    "address": "Атырау облысы, Құрманғазы ауданы, Құрманғазы ауылы, Болашақ көш., 1",
    "email": " ",
    "phone": "87029003995",
    "schedule": "Пн-Пт – 10:00 – 17:00",
    "lunch": "13:00 – 14:00"
  },
  {
    "id": 58,
    "group": 6,
    "region": "Қызылқоға ауданы",
    "fio": "Қаленов Азамат",
    "address": "Атырау облысы, Қызылқоға ауданы, Миялы ауылы, А. Сабыров көш., 14-үй",
    "email": " ",
    "phone": "87013726064",
    "schedule": "Пн-Пт – 10:00 – 17:00",
    "lunch": "13:00 – 14:00"
  },
  {
    "id": 59,
    "group": 6,
    "region": "Махамбет ауданы",
    "fio": "Дәулетов Хизатолла Құрметұлы",
    "address": "Атырау облысы, Махамбет ауданы, Махамбет ауылы, Абай көш., 27 (аудандық соттың ғимараты)",
    "email": " ",
    "phone": "87014478247",
    "schedule": "Пн-Пт – 10:00 – 17:00",
    "lunch": "13:00 – 14:00"
  },
  {
    "id": 60,
    "group": 6,
    "region": "Мақат ауданы",
    "fio": "Бисенов Жандос Нұрболатұлы",
    "address": "Атырау облысы, Мақат ауданы, Мақат ауылы, Қаныш Сәтпаев көш., 1 («Нұр Отан» партиясының ғимараты)",
    "email": " ",
    "phone": "87784862055",
    "schedule": "Пн-Пт – 10:00 – 17:00",
    "lunch": "13:00 – 14:00"
  },
  {
    "id": 61,
    "group": 6,
    "region": "Индер ауданы",
    "fio": "Жақсымбетов Тұрлан Қадесұлы",
    "address": "Атырау облысы, Индер ауданы, Индербор ауылы, Бейбарыс көш., 2, 35-каб",
    "email": " ",
    "phone": "87016100593",
    "schedule": "Пн-Пт – 10:00 – 17:00",
    "lunch": "13:00 – 14:00"
  },
  {
    "id": 62,
    "group": 6,
    "region": "Исатай ауданы",
    "fio": "Қалисова Гүлсім Ғалымқызы",
    "address": "Аққыстау ауылы, Әбілхайыр хан көш., 32, «Нұр Отан» партиясының ғимараты",
    "email": " ",
    "phone": "87787412608",
    "schedule": "Пн-Пт – 10:00 – 17:00",
    "lunch": "13:00 – 14:00"
  },
  {
    "id": 63,
    "group": 16,
    "region": "Өскемен қ.",
    "fio": "Қалиақпаров Қалтай Шайхисламұлы",
    "address": "Өскемен қ., М. Горький көш., 74, 307-кеңсе",
    "email": " ",
    "phone": "87055048631",
    "schedule": "Пн-Пт – 10:00 – 17:00",
    "lunch": "13:00 – 14:00"
  },
  {
    "id": 65,
    "group": 16,
    "region": "Семей қ",
    "fio": "Исажанов Қуат Қайырбекұлы",
    "address": "Семей қ., 2-шағынаудан, 15-тұрғын аудан, 1-үй, 2-кеңсе жұмыс",
    "email": " ",
    "phone": "87072393037, 87773393037",
    "schedule": "Пн-Пт – 10:00 – 17:00",
    "lunch": "13:00 – 14:00"
  },
  {
    "id": 66,
    "group": 16,
    "region": "Риддер қ.",
    "fio": "Құстаева Айнагүл Төлетайқызы",
    "address": "Риддер қ., Тәуелсіздік көш., 12 а",
    "email": " ",
    "phone": "87055043793, 87711798789",
    "schedule": "Пн-Пт – 10:00 – 17:00",
    "lunch": "13:00 – 14:00"
  },
  {
    "id": 67,
    "group": 16,
    "region": "Курчатов қ.",
    "fio": "Ибрайымов Бақытжан Мәдениетұлы",
    "address": "Курчутов қ. Абай көш., 13",
    "email": " ",
    "phone": "87787503012, 87055297502",
    "schedule": "Пн-Пт – 10:00 – 17:00",
    "lunch": "13:00 – 14:00"
  },
  {
    "id": 68,
    "group": 16,
    "region": "Абай ауданы",
    "fio": "Жарылғапов Ержан Төлепбекұлы",
    "address": "Қарауыл ауданы, Молдағалиев көш. 34",
    "email": " ",
    "phone": " ",
    "schedule": "Пн-Пт – 10:00 – 17:00",
    "lunch": "13:00 – 14:00"
  },
  {
    "id": 69,
    "group": 16,
    "region": "Алтай",
    "fio": "Бахарева Анна Германовна",
    "address": "Алтай ауданы, Алтай қ., Фрунзе көш., 39, 2-кеңсе",
    "email": " ",
    "phone": "87056625411",
    "schedule": "Пн-Пт – 10:00 – 17:00",
    "lunch": "13:00 – 14:00"
  },
  {
    "id": 70,
    "group": 16,
    "region": "Аягөз ауданы",
    "fio": "Ақажанов Серік Қосанұлы",
    "address": "Аягөз ауданы, Аягөз қ., Абай гүлзары, 19 а Пошта ғимараты",
    "email": " ",
    "phone": "87016878707",
    "schedule": "Пн-Пт – 10:00 – 17:00",
    "lunch": "13:00 – 14:00"
  },
  {
    "id": 71,
    "group": 16,
    "region": "Бесқарағай ауданы",
    "fio": "Құнафин Бекқали Инапұлы",
    "address": "Бесқарағай ауданы, Қалтаев көш., 38 «Адвокаттар кеңсесі»",
    "email": " ",
    "phone": "87054564131",
    "schedule": "Пн-Пт – 10:00 – 17:00",
    "lunch": "13:00 – 14:00"
  },
  {
    "id": 72,
    "group": 16,
    "region": "Бородулихи ауданы",
    "fio": "Тоқтаров Думан Оразбайұлы",
    "address": "Бородулихин ауданы, Бородулиха ауылы, Колхозная көш., 3/7-үй",
    "email": " ",
    "phone": "77774278796",
    "schedule": "Пн-Пт – 10:00 – 17:00",
    "lunch": "13:00 – 14:00"
  },
  {
    "id": 73,
    "group": 16,
    "region": "Глубоков ауданы",
    "fio": "Беспалов Жәнібек Теміржанұлы",
    "address": "Глубоков ауданы, Глубокое ауылы, Попович көш., 11 а, Глубоков аудандық ЖРО-ның ғимараты",
    "email": " ",
    "phone": "87772560409",
    "schedule": "Пн-Пт – 10:00 – 17:00",
    "lunch": "13:00 – 14:00"
  },
  {
    "id": 74,
    "group": 16,
    "region": "Жарма ауданы",
    "fio": "Раев Марат Сайлаубекұлы",
    "address": "Жарма ауданы, Қалбатау ауылы, Достық көш., 98 ХҚКО ғимараты",
    "email": " ",
    "phone": "77771548561",
    "schedule": "Пн-Пт – 10:00 – 17:00",
    "lunch": "13:00 – 14:00"
  },
  {
    "id": 75,
    "group": 16,
    "region": "Зайсан ауданы",
    "fio": "Мұхаметжанов Жақсылық Айтқалиұлы",
    "address": "Зайсан қ., Жангелдин көш., 38",
    "email": " ",
    "phone": "870528026004, 87014158333",
    "schedule": "Пн-Пт – 10:00 – 17:00",
    "lunch": "13:00 – 14:00"
  },
  {
    "id": 76,
    "group": 16,
    "region": "Қатон-Қарағай ауданы",
    "fio": "Тоқтаров Марат Қазезұлы",
    "address": "Қатон-Қарағай ауданы, Қатон-Қарағай ауылы, Молдағұлова көш.,29, 2-пәтер",
    "email": " ",
    "phone": "8778-600-1352, 8705-6480831",
    "schedule": "Пн-Пт – 10:00 – 17:00",
    "lunch": "13:00 – 14:00"
  },
  {
    "id": 77,
    "group": 16,
    "region": "Көкпекті ауданы",
    "fio": "Мұқашева Әлия Орымбекқызы",
    "address": "Көкпекті ауылы, Абылайхан көш., 19, 102-кеңсе",
    "email": " ",
    "phone": " ",
    "schedule": "Пн-Пт – 10:00 – 17:00",
    "lunch": "13:00 – 14:00"
  },
  {
    "id": 78,
    "group": 16,
    "region": "Күршім ауданы",
    "fio": "Жұрағатова Нұртай Камалханқызы",
    "address": "Күршім ауданы, Захаров көш., 1a, 3 қабат",
    "email": " ",
    "phone": "87775432300",
    "schedule": "Пн-Пт – 10:00 – 17:00",
    "lunch": "13:00 – 14:00"
  },
  {
    "id": 79,
    "group": 16,
    "region": "Тарбағатай ауданы",
    "fio": "Мәкежанов Айбат Жұртбайұлы",
    "address": "Тарбағатай ауданы, Ақжар ауылы, Жамбыл көш., 24/6",
    "email": " ",
    "phone": "87028252604",
    "schedule": "Пн-Пт – 10:00 – 17:00",
    "lunch": "13:00 – 14:00"
  },
  {
    "id": 80,
    "group": 16,
    "region": "Ұлан ауданы",
    "fio": "Сыдықов Ерік Зарипұлы",
    "address": "Ұлан ауданы, Қасым Қайсенов ауылы, 10-үй, жертөле ғимараты",
    "email": " ",
    "phone": "87778525222",
    "schedule": "Пн-Пт – 10:00 – 17:00",
    "lunch": "13:00 – 14:00"
  },
  {
    "id": 81,
    "group": 16,
    "region": "Үржар ауданы",
    "fio": "Ысқақов Алдаберген Тұрарұлы",
    "address": "Үржар ауданы, Үржар ауылы, Абылайхан, 309",
    "email": " ",
    "phone": "87752245633",
    "schedule": "Пн-Пт – 10:00 – 17:00",
    "lunch": "13:00 – 14:00"
  },
  {
    "id": 82,
    "group": 16,
    "region": "Шемонаиха ауданы",
    "fio": "Зюзь Екатерина Григорьевна",
    "address": "Шемонаиха ауданы, Шемонаиха қ., 3-шағынаудан, 27 а үй, «Заңгерлік қызметтер»",
    "email": " ",
    "phone": "87054971923, 87778519812",
    "schedule": "Пн-Пт – 10:00 – 17:00",
    "lunch": "13:00 – 14:00"
  },
  {
    "id": 83,
    "group": 8,
    "region": "Жамбыл облысы Тараз қ.",
    "fio": "Саламат Дүйсенбеков ",
    "address": "Рысбек батыр көш., 14 ХҚКО ғимаратының кеңсесі",
    "email": " ",
    "phone": "87023170404",
    "schedule": "Пн-Пт – 10:00 – 17:00",
    "lunch": "13:00 – 14:00"
  },
  {
    "id": 84,
    "group": 8,
    "region": "Тараз қ.",
    "fio": "Баян Құрбанова",
    "address": "Желтоқсан көш., 28",
    "email": " ",
    "phone": "87779443918",
    "schedule": "Пн-Пт – 10:00 – 17:00",
    "lunch": "13:00 – 14:00"
  },
  {
    "id": 85,
    "group": 8,
    "region": "Байзақов ауданы",
    "fio": "Сапарғали Әмірбеков ",
    "address": "Сарыкемер а/о, Байзақ батыр көш., 28",
    "email": " ",
    "phone": "87011060706",
    "schedule": "Пн-Пт – 10:00 – 17:00",
    "lunch": "13:00 – 14:00"
  },
  {
    "id": 86,
    "group": 8,
    "region": "Жамбыл ауданы",
    "fio": "Төлеби Шманов",
    "address": "Аса а/о, Абай көш., 22",
    "email": " ",
    "phone": "87773336767",
    "schedule": "Пн-Пт – 10:00 – 17:00",
    "lunch": "13:00 – 14:00"
  },
  {
    "id": 87,
    "group": 8,
    "region": "Жуалы ауданы",
    "fio": "Жандос Қалдыбеков",
    "address": "Бауыржан Момышұлы а/о, Жібек жолы көш., 5б",
    "email": " ",
    "phone": "87784019145",
    "schedule": "Пн-Пт – 10:00 – 17:00",
    "lunch": "13:00 – 14:00"
  },
  {
    "id": 88,
    "group": 8,
    "region": "Қордай ауданы",
    "fio": "Садыров Еркін",
    "address": "Қордай, Жібек жолы көш, 27",
    "email": " ",
    "phone": "87012638045",
    "schedule": "Пн-Пт – 10:00 – 17:00",
    "lunch": "13:00 – 14:00"
  },
  {
    "id": 89,
    "group": 8,
    "region": "Меркен ауданы",
    "fio": "Акрамов Одилжан",
    "address": "Мерке а/о, Исмайлов көш., 423, өз кеңсесі",
    "email": " ",
    "phone": "87000100099",
    "schedule": "Пн-Пт – 10:00 – 17:00",
    "lunch": "13:00 – 14:00"
  },
  {
    "id": 90,
    "group": 8,
    "region": "Мойынқұм ауданы",
    "fio": "Есіркепов Мұхит ",
    "address": "Омаров көш., 63",
    "email": " ",
    "phone": "87477125968",
    "schedule": "Пн-Пт – 10:00 – 17:00",
    "lunch": "13:00 – 14:00"
  },
  {
    "id": 91,
    "group": 8,
    "region": "Рысқұлов ауданы",
    "fio": "Сембек Ибрайымов ",
    "address": "Құдан а/о, Жібек жолы көш., 72",
    "email": " ",
    "phone": "87025559737",
    "schedule": "Пн-Пт – 10:00 – 17:00",
    "lunch": "13:00 – 14:00"
  },
  {
    "id": 92,
    "group": 8,
    "region": "Сарысу ауданы",
    "fio": "Құдайназарова Малика",
    "address": "Жаңатас қ., 52-үй, бүйір бұрыштан кіру",
    "email": " ",
    "phone": "87027122199",
    "schedule": "Пн-Пт – 10:00 – 17:00",
    "lunch": "13:00 – 14:00"
  },
  {
    "id": 93,
    "group": 8,
    "region": "Талас ауданы",
    "fio": "Пережогин Алексей",
    "address": "Қаратау қ., Желтоқсан көш",
    "email": " ",
    "phone": "87771981769",
    "schedule": "Пн-Пт – 10:00 – 17:00",
    "lunch": "13:00 – 14:00"
  },
  {
    "id": 94,
    "group": 8,
    "region": "Шу ауданы",
    "fio": "Инкариев Узбек",
    "address": "Шу қ., Қонаев көш., 14",
    "email": " ",
    "phone": "87017135960",
    "schedule": "Пн-Пт – 10:00 – 17:00",
    "lunch": "13:00 – 14:00"
  },
  {
    "id": 95,
    "group": 7,
    "region": "Орал қ.",
    "fio": "Қапезов Әділбек Жеңісұлы",
    "address": "Жүнісов көш., 110",
    "email": "akapezov@mail.ru",
    "phone": "87014447161",
    "schedule": "Пн-Пт – 10:00 – 17:00",
    "lunch": "13:00 – 14:00"
  },
  {
    "id": 96,
    "group": 7,
    "region": "Ақжайық ауданы",
    "fio": "Даутов Ізбасар Ерболатұлы",
    "address": "Чапаев ауылы, Ихсанов, 18",
    "email": "Izaka79@mail.ru",
    "phone": "87769125422",
    "schedule": "Пн-Пт – 10:00 – 17:00",
    "lunch": "13:00 – 14:00"
  },
  {
    "id": 97,
    "group": 7,
    "region": "Бөкей ордасы ауданы",
    "fio": "Алдабергенов Абай Қапанұлы",
    "address": "Сайқын ауылы, Бегалиев көш",
    "email": "kapanovaaisha11.05.04@gmail.com",
    "phone": "87053907373, 87073228197",
    "schedule": "Пн-Пт – 10:00 – 17:00",
    "lunch": "13:00 – 14:00"
  },
  {
    "id": 98,
    "group": 7,
    "region": "Бөрлі ауданы",
    "fio": "Өтепбаев Замир Карлұлы",
    "address": "Ақсай қ., Абай көш., 36,",
    "email": "zamir_u@mail.ru",
    "phone": "87051855782, 87013790114",
    "schedule": "Пн-Пт – 10:00 – 17:00",
    "lunch": "13:00 – 14:00"
  },
  {
    "id": 99,
    "group": 7,
    "region": "Жаңақала ауданы",
    "fio": "Ғұмаров Ғайни Ғалымжанұлы",
    "address": "Жаңақала ауылы, Халықтар достығы, 44",
    "email": "Gaini65@mail.ru",
    "phone": "87751915425",
    "schedule": "Пн-Пт – 10:00 – 17:00",
    "lunch": "13:00 – 14:00"
  },
  {
    "id": 100,
    "group": 7,
    "region": "Жәнібек ауданы",
    "fio": "Шаумов Ерболат Хайрұлы",
    "address": "Жәнібек ауылы, Победа көш., 19",
    "email": "erbolat_adb@mail.ru",
    "phone": "87773726437",
    "schedule": "Пн-Пт – 10:00 – 17:00",
    "lunch": "13:00 – 14:00"
  },
  {
    "id": 101,
    "group": 7,
    "region": "Бәйтерек ауданы",
    "fio": "Бүдірова Салтанат Мұратқалиқызы",
    "address": "Переметный ауылы, Әуезов көш., 80",
    "email": "saltana81@bk.ru",
    "phone": "87754846695",
    "schedule": "Пн-Пт – 10:00 – 17:00",
    "lunch": "13:00 – 14:00"
  },
  {
    "id": 102,
    "group": 7,
    "region": "Қазталов ауданы",
    "fio": "Нұғманов Әміржан Нұртазаұлы",
    "address": " Қазталов ауылы, Шарафутдинов көш., 1",
    "email": "aizhan.91@mail.ru",
    "phone": "87055612481, 87754092248",
    "schedule": "Пн-Пт – 10:00 – 17:00",
    "lunch": "13:00 – 14:00"
  },
  {
    "id": 103,
    "group": 7,
    "region": "Қаратөбе ауданы",
    "fio": "Ғатауоллин Рахат Тұрсынғалиұлы",
    "address": " Қаратөбе ауылы, Құрманғазы көш., 19",
    "email": "gatauollin123@mail.ru",
    "phone": "87054330967 вацап, 87771834102",
    "schedule": "Пн-Пт – 10:00 – 17:00",
    "lunch": "13:00 – 14:00"
  },
  {
    "id": 104,
    "group": 7,
    "region": "Сырым ауданы",
    "fio": "Серікқалиева Айгерім Айболатқызы",
    "address": " Жымпиты ауылы, Қазақстан, 1",
    "email": "serikkaliyevaa@bk.ru",
    "phone": "87055127553",
    "schedule": "Пн-Пт – 10:00 – 17:00",
    "lunch": "13:00 – 14:00"
  },
  {
    "id": 105,
    "group": 7,
    "region": "Тасқала ауданы",
    "fio": "Таужанова Анар Асқарқызы",
    "address": "Тасқала ауылы, Абай көш., 11",
    "email": "anar-tau@mail.ru",
    "phone": "87771810411",
    "schedule": "Пн-Пт – 10:00 – 17:00",
    "lunch": "13:00 – 14:00"
  },
  {
    "id": 106,
    "group": 7,
    "region": "Теректі ауданы",
    "fio": "Ғұбайдуллин Айдар Ержанұлы",
    "address": "Федоровка ауылы, Пионерия көш., 56/2",
    "email": "cassie_all@mail.ru",
    "phone": "87073622898",
    "schedule": "Пн-Пт – 10:00 – 17:00",
    "lunch": "13:00 – 14:00"
  },
  {
    "id": 107,
    "group": 7,
    "region": "Шыңғырлау ауданы",
    "fio": "Досиев Ақылбек Айтмағамбетұлы",
    "address": "Шыңғырлау ауылы, Л. Қылышев көш., 112е",
    "email": "akylbek.dossiyev63@mail.ru",
    "phone": "87776175159",
    "schedule": "Пн-Пт – 10:00 – 17:00",
    "lunch": "13:00 – 14:00"
  },
  {
    "id": 108,
    "group": 9,
    "region": "Қарағанды қ.",
    "fio": "Кәкімов Арман Нұртайұлы",
    "address": "Ерубаев көш., 5-үй, 45а  каб",
    "email": " ",
    "phone": "87773271091",
    "schedule": "Пн-Пт – 10:00 – 17:00",
    "lunch": "13:00 – 14:00"
  },
  {
    "id": 109,
    "group": 9,
    "region": "Қарағанды қ.",
    "fio": "Бөкенов Нұржан Махатұлы",
    "address": "Ерубаев көш., 5-үй, 45 а каб",
    "email": " ",
    "phone": "87078859509",
    "schedule": "Пн-Пт – 10:00 – 17:00",
    "lunch": "13:00 – 14:00"
  },
  {
    "id": 110,
    "group": 9,
    "region": "Балқаш қ.",
    "fio": "Тусупов Марат Көмекбайұлы",
    "address": "Балқаш қ., Бөкейханов көш., №44А үй",
    "email": " ",
    "phone": "87074777975",
    "schedule": "Пн-Пт – 10:00 – 17:00",
    "lunch": "13:00 – 14:00"
  },
  {
    "id": 111,
    "group": 9,
    "region": "Жезқазған қ.",
    "fio": "Битенова Нағым Мұхтарұлы",
    "address": "Жезқазған қ., Гагарин көш., 37 үй, 54 кеңсе",
    "email": " ",
    "phone": "87770998397",
    "schedule": "Пн-Пт – 10:00 – 17:00",
    "lunch": "13:00 – 14:00"
  },
  {
    "id": 112,
    "group": 9,
    "region": "Қаражал қ.",
    "fio": "Рақымбеков Бауыржан Рақымбекұлы",
    "address": "Қаражал қ., Труд көш., 12-1",
    "email": " ",
    "phone": "87052503886",
    "schedule": "Пн-Пт – 10:00 – 17:00",
    "lunch": "13:00 – 14:00"
  },
  {
    "id": 113,
    "group": 9,
    "region": "Приозерск қ.",
    "fio": "Утепкалиева Эльмира Ләззатқызы",
    "address": "Приозерк қ., Жеңіс Бульвары көш",
    "email": " ",
    "phone": "87028917568",
    "schedule": "Пн-Пт – 10:00 – 17:00",
    "lunch": "13:00 – 14:00"
  },
  {
    "id": 114,
    "group": 9,
    "region": "Сарань қ.",
    "fio": "Карагуц Ирина Анатольевна",
    "address": "Ленин даңғылы, 7 үй,",
    "email": " ",
    "phone": "87022787215",
    "schedule": "Пн-Пт – 10:00 – 17:00",
    "lunch": "13:00 – 14:00"
  },
  {
    "id": 115,
    "group": 9,
    "region": "Сәтпаев қ.",
    "fio": "Жұмабекова Жібек Нұрбайқызы",
    "address": "Сәтпаев қ., Сәтпаев даңғылы, 104 А-207",
    "email": " ",
    "phone": "87778918855",
    "schedule": "Пн-Пт – 10:00 – 17:00",
    "lunch": "13:00 – 14:00"
  },
  {
    "id": 116,
    "group": 9,
    "region": "Теміртау қ.",
    "fio": "Артем Козловский",
    "address": "Теміртау қ., Чайковский көш., 22 үй",
    "email": " ",
    "phone": "87759379296",
    "schedule": "Пн-Пт – 10:00 – 17:00",
    "lunch": "13:00 – 14:00"
  },
  {
    "id": 117,
    "group": 9,
    "region": "Шахтинск қ.",
    "fio": "Ефимов Батыр Байқадамұлы",
    "address": "Абай көш., 54-үй, 320-кеңсе",
    "email": " ",
    "phone": "87076326700",
    "schedule": "Пн-Пт – 10:00 – 17:00",
    "lunch": "13:00 – 14:00"
  },
  {
    "id": 118,
    "group": 9,
    "region": "Абай қ.",
    "fio": "Аманов Аман Мақсатұлы",
    "address": "Әуезов көш., 19-үй",
    "email": " ",
    "phone": "87074911712",
    "schedule": "Пн-Пт – 10:00 – 17:00",
    "lunch": "13:00 – 14:00"
  },
  {
    "id": 119,
    "group": 9,
    "region": "Ақтоғай ауданы",
    "fio": "Өзбеков Дархан Өзбекұлы",
    "address": "Үшарал ауылы, Байтерек көш., 10,",
    "email": " ",
    "phone": "87053326650",
    "schedule": "Пн-Пт – 10:00 – 17:00",
    "lunch": "13:00 – 14:00"
  },
  {
    "id": 120,
    "group": 9,
    "region": "Жырау ауданы",
    "fio": "Жунусов Бейсембай Төлеутайұлы",
    "address": "Ботқара ауылы, Қазыбек би көш., 54 үй, 4",
    "email": " ",
    "phone": "87006005049",
    "schedule": "Пн-Пт – 10:00 – 17:00",
    "lunch": "13:00 – 14:00"
  },
  {
    "id": 121,
    "group": 9,
    "region": "Жаңаарқа ауданы",
    "fio": "Еркемұрат Қалиақпарұлы",
    "address": "Оспанова көш., 56/16",
    "email": " ",
    "phone": "87087333645",
    "schedule": "Пн-Пт – 10:00 – 17:00",
    "lunch": "13:00 – 14:00"
  },
  {
    "id": 122,
    "group": 9,
    "region": "Қарқаралы ауданы",
    "fio": "Әлімжанов Қуаныш Қайратұлы",
    "address": "Қарқаралы ауылы, В. Рей көш., 50 үй",
    "email": " ",
    "phone": "87023685048",
    "schedule": "Пн-Пт – 10:00 – 17:00",
    "lunch": "13:00 – 14:00"
  },
  {
    "id": 123,
    "group": 9,
    "region": "Нұра ауданы",
    "fio": "Касаткин Иван Александрович",
    "address": "Тассуат ауылы, Тәуелсіздік көш., 15Б",
    "email": " ",
    "phone": "87053162100",
    "schedule": "Пн-Пт – 10:00 – 17:00",
    "lunch": "13:00 – 14:00"
  },
  {
    "id": 124,
    "group": 9,
    "region": "Осакаров ауданы",
    "fio": "Хамитова Жібек Жұпарқызы",
    "address": "Осақаров ауылы, Достық көш., 34, 2 қабат",
    "email": " ",
    "phone": "87053162100",
    "schedule": "Пн-Пт – 10:00 – 17:00",
    "lunch": "13:00 – 14:00"
  },
  {
    "id": 125,
    "group": 9,
    "region": "Ұлытау ауданы",
    "fio": "Жапарова Хамарамену Алтынбекқызы",
    "address": "Жезді ауылы, Күтімбетов көш., 33-7",
    "email": " ",
    "phone": "87775125957",
    "schedule": "Пн-Пт – 10:00 – 17:00",
    "lunch": "13:00 – 14:00"
  },
  {
    "id": 126,
    "group": 9,
    "region": "Шет ауданы",
    "fio": "Мақажанова Алма Бақиевна",
    "address": "Ақсу-Аюлы ауылы, Шортанбай жырау көш., аудандық сот ғимараты",
    "email": " ",
    "phone": "87027458010",
    "schedule": "Пн-Пт – 10:00 – 17:00",
    "lunch": "13:00 – 14:00"
  },
  {
    "id": 127,
    "group": 10,
    "region": "Қостанай қ.",
    "fio": "Мұғадаров Жәнібек Жұмабекұлы",
    "address": "«Жастар Сарайы» («Плаза» сауда-ойын-сауық орталығына қарама-қарсы)",
    "email": " ",
    "phone": "+77478068843",
    "schedule": "Пн-Пт – 10:00 – 17:00",
    "lunch": "13:00 – 14:00"
  },
  {
    "id": 128,
    "group": 10,
    "region": "Арқалық қ.",
    "fio": "Төребекова Ботагөз Сәбитқызы",
    "address": "Байтұрсын көш., 14-үй, 6-кабинет",
    "email": " ",
    "phone": "+77012675649",
    "schedule": "Пн-Пт – 10:00 – 17:00",
    "lunch": "13:00 – 14:00"
  },
  {
    "id": 129,
    "group": 10,
    "region": "Жітіқара қ.",
    "fio": "Әуеспаева Айнагүл Амангелдіқызы",
    "address": "«Жастар ресурстық орталығы» КММ, 6-ш/а",
    "email": " ",
    "phone": "+77053287227",
    "schedule": "Пн-Пт – 10:00 – 17:00",
    "lunch": "13:00 – 14:00"
  },
  {
    "id": 130,
    "group": 10,
    "region": "Лисаков қ.",
    "fio": "Сүлейменов Евгений Александрович",
    "address": "«Мир көш., 32, 41-кеңсе, «Союз» МҮ»",
    "email": " ",
    "phone": "+77000970006",
    "schedule": "Пн-Пт – 10:00 – 17:00",
    "lunch": "13:00 – 14:00"
  },
  {
    "id": 131,
    "group": 10,
    "region": "Рудный қ.",
    "fio": "Долгих Дмитрий Леонидович",
    "address": "Корчагин көш., 117, 12-кабинет",
    "email": " ",
    "phone": "+77474328599",
    "schedule": "Пн-Пт – 10:00 – 17:00",
    "lunch": "13:00 – 14:00"
  },
  {
    "id": 132,
    "group": 10,
    "region": "Алтынсарин ауданы",
    "fio": "Рахаделов Дәурен Құрманғалиұлы",
    "address": "Силантьевка ауылы, Мир көш. 15",
    "email": " ",
    "phone": "+77776143320",
    "schedule": "Пн-Пт – 10:00 – 17:00",
    "lunch": "13:00 – 14:00"
  },
  {
    "id": 133,
    "group": 10,
    "region": "Амангелді ауданы",
    "fio": "Айтмағамбетов Дастан Абайұлы",
    "address": "Амангелді ауылы, Ермағанбетов көш. 1",
    "email": " ",
    "phone": "+77012968741",
    "schedule": "Пн-Пт – 10:00 – 17:00",
    "lunch": "13:00 – 14:00"
  },
  {
    "id": 134,
    "group": 10,
    "region": "Әулиекөл ауданы",
    "fio": "Қасымова Базаркүл Ермекқызы",
    "address": "Әулиекөл ауданы, Баймағамбетов көш. 25",
    "email": " ",
    "phone": "+77084942292",
    "schedule": "Пн-Пт – 10:00 – 17:00",
    "lunch": "13:00 – 14:00"

  },
  {
    "id": 135,
    "group": 10,
    "region": "Денисов ауданы",
    "fio": "Имақанова Айзада Зайноллақызы",
    "address": "Деносовка ауылы, Ленин көш. 20",
    "email": " ",
    "phone": "+77054036103",
    "schedule": "Пн-Пт – 10:00 – 17:00",
    "lunch": "13:00 – 14:00"
  },
  {
    "id": 136,
    "group": 10,
    "region": "Жангелді ауданы",
    "fio": "Жақып Ерболат Ахметқалиұлы",
    "address": "Торғай ауылы, Алтынсарин көш. 4",
    "email": " ",
    "phone": "+77754117102",
    "schedule": "Пн-Пт – 10:00 – 17:00",
    "lunch": "13:00 – 14:00"
  },
  {
    "id": 137,
    "group": 10,
    "region": "Қамсыты ауданы",
    "fio": "Көпжасаров Амангелді Тұрғанұлы",
    "address": "Қамысты ауданы, Қамысты ауылы, Ержанов көш. 70",
    "email": " ",
    "phone": "+77782036468",
    "schedule": "Пн-Пт – 10:00 – 17:00",
    "lunch": "13:00 – 14:00"
  },
  {
    "id": 138,
    "group": 10,
    "region": "Қарабалық ауданы",
    "fio": "Бермұхамбетова Венера Мырқайдарқызы",
    "address": "Қарабалық ауылы, Ленин көш. 16/1",
    "email": " ",
    "phone": "+77059885581",
    "schedule": "Пн-Пт – 10:00 – 17:00",
    "lunch": "13:00 – 14:00"
  },
  {
    "id": 139,
    "group": 10,
    "region": "Қарасу ауданы",
    "fio": "Мұратхан Бақытжанұлы",
    "address": "«Жастар ресурстық орталығы» КММ; Қарасу ауылы, Рамазанов көш., 45",
    "email": " ",
    "phone": "+77773734849",
    "schedule": "Пн-Пт – 10:00 – 17:00",
    "lunch": "13:00 – 14:00"
  },
  {
    "id": 140,
    "group": 10,
    "region": "Қостанай ауданы",
    "fio": "Бекмұрзина Динара Серікбайқызы",
    "address": "Затобольск ауылы, Школьная көш., 40",
    "email": " ",
    "phone": "+77076352179",
    "schedule": "Пн-Пт – 10:00 – 17:00",
    "lunch": "13:00 – 14:00"
  },
  {
    "id": 141,
    "group": 10,
    "region": "Мендіқара ауданы",
    "fio": "Омаров Жасұлан Сәбитұлы",
    "address": "Боровской ауылы, Королев көш., 4 А",
    "email": " ",
    "phone": "+77776367557",
    "schedule": "Пн-Пт – 10:00 – 17:00",
    "lunch": "13:00 – 14:00"
  },
  {
    "id": 142,
    "group": 10,
    "region": "Наурызым ауданы",
    "fio": "Сауытбаева Айнагүл Базылтайқызы",
    "address": "Қарамеңді ауылы, Шаяхметов көш. 2",
    "email": " ",
    "phone": "+77762904523",
    "schedule": "Пн-Пт – 10:00 – 17:00",
    "lunch": "13:00 – 14:00"
  },
  {
    "id": 143,
    "group": 10,
    "region": "Сарыкөл ауданы",
    "fio": "Моргунов Дмитрий Андреевич",
    "address": "Сарыкөл ауылы, Свобода көш., 1",
    "email": " ",
    "phone": "+77477555013",
    "schedule": "Пн-Пт – 10:00 – 17:00",
    "lunch": "13:00 – 14:00"
  },
  {
    "id": 144,
    "group": 10,
    "region": "Таранов ауданы",
    "fio": "Валентина Петровна",
    "address": "Тарановка ауылы, Тәуелсіздік, 64",
    "email": " ",
    "phone": "+77778982537",
    "schedule": "Пн-Пт – 10:00 – 17:00",
    "lunch": "13:00 – 14:00"
  },
  {
    "id": 145,
    "group": 10,
    "region": "Ұзынкөл ауданы",
    "fio": "Нұрсейітова Гаухар Тоқмырзақызы",
    "address": " ",
    "email": " ",
    "phone": "+77760120161",
    "schedule": "Пн-Пт – 10:00 – 17:00",
    "lunch": "13:00 – 14:00"
  },
  {
    "id": 146,
    "group": 10,
    "region": "Федоров ауданы",
    "fio": "Чёрная Татьяна Александровна",
    "address": "Федоровка ауылы, Легкодухов көш., 24",
    "email": " ",
    "phone": "+77772980930",
    "schedule": "Пн-Пт – 10:00 – 17:00",
    "lunch": "13:00 – 14:00"
  },
  {
    "id": 147,
    "group": 11,
    "region": "Қызылорда қ.",
    "fio": "Бақты Ләззат Шайзадақызы",
    "address": "Қызылорда қ., 4, №1 кеңсе",
    "email": " ",
    "phone": "+77750005082",
    "schedule": "Пн-Пт – 10:00 – 17:00",
    "lunch": "13:00 – 14:00"
  },
  {
    "id": 148,
    "group": 11,
    "region": "Арал ауданы",
    "fio": "Жалғасбаев Әділбек Жаксығұлұлы",
    "address": "Арал қ., Т. Есетов көш., №6",
    "email": " ",
    "phone": "+77054302151",
    "schedule": "Пн-Пт – 10:00 – 17:00",
    "lunch": "13:00 – 14:00"
  },
  {
    "id": 149,
    "group": 11,
    "region": "Жаңақорған ауылы",
    "fio": "Өскенбаева Орынкүл Тоймырзақызы",
    "address": "Жаңақорған ауылы, Амангелді көш., №107",
    "email": " ",
    "phone": "+77016066008",
    "schedule": "Пн-Пт – 10:00 – 17:00",
    "lunch": "13:00 – 14:00"
  },
  {
    "id": 150,
    "group": 11,
    "region": "Жалағаш ауданы",
    "fio": "Жұманова Бенадзир Сырмаханқызы",
    "address": "Жалағаш ауылы, Абай көш., №39",
    "email": " ",
    "phone": "+77776637004",
    "schedule": "Пн-Пт – 10:00 – 17:00",
    "lunch": "13:00 – 14:00"
  },
  {
    "id": 151,
    "group": 11,
    "region": "Қазалы ауданы",
    "fio": "Қайнарова Гүлжамал Омарқызы",
    "address": "Әйтеке би ауылы, Жанқожа батыр көш., №96",
    "email": " ",
    "phone": "+77769713056",
    "schedule": "Пн-Пт – 10:00 – 17:00",
    "lunch": "13:00 – 14:00"
  },
  {
    "id": 152,
    "group": 11,
    "region": "Қазалы ауданы",
    "fio": "Қайнарова Гүлжамал Омарқызы",
    "address": "Әйтеке би ауылы, Жанқожа батыр көш., №96",
    "email": " ",
    "phone": "+77769713056",
    "schedule": "Пн-Пт – 10:00 – 17:00",
    "lunch": "13:00 – 14:00"
  },
  {
    "id": 153,
    "group": 11,
    "region": "Шиелі ауылы",
    "fio": "Әшімов Назар Сұлтанұлы",
    "address": "Әйтеке би ауылы, Жанқожа батыр көш., №96",
    "email": " ",
    "phone": "+77772228821",
    "schedule": "Пн-Пт – 10:00 – 17:00",
    "lunch": "13:00 – 14:00"
  },
  {
    "id": 154,
    "group": 11,
    "region": "Сырдария ауданы",
    "fio": "Рашов Қыдырбек Жұмағұлұлы",
    "address": "Тереңөзек ауылы, Абай көш., №24",
    "email": " ",
    "phone": "+77057119308",
    "schedule": "Пн-Пт – 10:00 – 17:00",
    "lunch": "13:00 – 14:00"
  },
  {
    "id": 155,
    "group": 12,
    "region": "Ақтау қ.",
    "fio": "Нұржанов Мұса Тұрланұлы",
    "address": "Ақтау қаласы, 29-шағынаудан, 24-үй, Құқық қорғау қызметтерінің орталығы, 9-кеңсе",
    "email": "mussa_7070@mail.ru",
    "phone": "+77292303009,+7 777 497 0384,+7 701 177 6125",
    "schedule": "Пн-Пт – 10:00 – 17:00",
    "lunch": "13:00 – 14:00"
  },
  {
    "id": 156,
    "group": 12,
    "region": "Жаңаөзен қ.",
    "fio": "Жұмағұлұлы Руслан",
    "address": "Жаңаөзен қ., 3а ш/а, Автобекет ғимараты, 1-қабат",
    "email": "barankulov88@mail.ru",
    "phone": "87716559644",
    "schedule": "Пн-Пт – 10:00 – 17:00",
    "lunch": "13:00 – 14:00"
  },
  {
    "id": 157,
    "group": 12,
    "region": "Бейнеу ауданы",
    "fio": "Қыстаубаев Орынғали Жалғасбайұлы",
    "address": "Бейнеу ауданы, Бейнеу ауылы, Досан Тәжиев көш., 7 Б үй",
    "email": "barankulov88@mail.ru",
    "phone": "87760331111",
    "schedule": "Пн-Пт – 10:00 – 17:00",
    "lunch": "13:00 – 14:00"
  },
  {
    "id": 158,
    "group": 12,
    "region": "Қарақия ауданы",
    "fio": "Төлегенова Рысгүл Аманжолқызы",
    "address": "Қарақия ауданы, Құрық ауылы, Сәтпаев көш., №209 ғимарат",
    "email": "risgul.t.a@mail.ru",
    "phone": "87293752300, 87026543079",
    "schedule": "Пн-Пт – 10:00 – 17:00",
    "lunch": "13:00 – 14:00"
  },
  {
    "id": 159,
    "group": 12,
    "region": "Маңғыстау ауданы",
    "fio": "Сарходжаев Қайырғали Кенжебайұлы",
    "address": "Маңғыстау ауданы, Шетпе ауылы, Иса Тіленбайұлы көш., 3/1",
    "email": "sarkodzhaev@mail.ru",
    "phone": "87014688964, 87293150866",
    "schedule": "Пн-Пт – 10:00 – 17:00",
    "lunch": "13:00 – 14:00"
  },
  {
    "id": 160,
    "group": 12,
    "region": "Мұнайлы ауданы",
    "fio": "Сайытғалиев Тұрақбай Эдилұлы",
    "address": "Мұнайлы ауданы, Маңғыстау ауылы, 14-квартал, 28-ғимарат (ескі ХҚКО-ға қарама-қарсы)",
    "email": "turakbay_saitgaliev@mail.ru",
    "phone": "87752348262",
    "schedule": "Пн-Пт – 10:00 – 17:00",
    "lunch": "13:00 – 14:00"
  },
  {
    "id": 161,
    "group": 12,
    "region": "Түпқарағай ауданы",
    "fio": "Алдоңғаров Ертай",
    "address": "Түпқарағай ауданы, Форт Шевченко қ., Е.Дәулетов көш., 6-үй",
    "email": "nurlan_9393@mail.ru",
    "phone": "87293822138, 87014017253",
    "schedule": "Пн-Пт – 10:00 – 17:00",
    "lunch": "13:00 – 14:00"
  },
  {
    "id": 162,
    "group": 14,
    "region": "Павлодар қ.",
    "fio": "Өтегенов Марат Қадылбекұлы",
    "address": "Павлодар облысы, Павлодар қ. Ломов көш. 38, Жастардың бастамаларын дамыту орталығы",
    "email": "Orken_didi@mail.ru",
    "phone": "87755802822, 87778742502",
    "schedule": "Пн-Пт – 10:00 – 17:00",
    "lunch": "13:00 – 14:00"
  },
  {
    "id": 163,
    "group": 14,
    "region": "Ақсу қ.",
    "fio": "Қунязов Ерлан Қайырбекұлы",
    "address": "Ақсу қ., Астана 21 А, Ашық әкімдік",
    "email": "Alex_kipr_tt@mail.ru",
    "phone": "87028728789, 87779362245",
    "schedule": "Пн-Пт – 10:00 – 17:00",
    "lunch": "13:00 – 14:00"
  },
  {
    "id": 164,
    "group": 14,
    "region": "Екібастұз қ.",
    "fio": "Абдрамова Тереза Владимировна",
    "address": "Павлодар облысы, Екібастұз қ., Бұқар жырау көш., 271 - 9",
    "email": "Gusu64@mail.ru",
    "phone": "87017260412",
    "schedule": "Пн-Пт – 10:00 – 17:00",
    "lunch": "13:00 – 14:00"
  },
  {
    "id": 165,
    "group": 14,
    "region": "Ақкөл ауданы",
    "fio": "Шалабаев Ермек Дүйсенбекұлы",
    "address": "Павлодар облысы, Аққулы ауылы, Абай көш., 27-2",
    "email": "Aidos_ka@inbox.ru",
    "phone": "87029090940",
    "schedule": "Пн-Пт – 10:00 – 17:00",
    "lunch": "13:00 – 14:00"
  },
  {
    "id": 166,
    "group": 14,
    "region": "Ақтоғай ауданы",
    "fio": "Баймақанов Дүйсенбай Құлбайұлы",
    "address": "Павлодар облысы, Ақтоғай ауданы, Ақтоғай ауылы, 67 ш/а – 2",
    "email": "aknyr@bk.ru",
    "phone": "87083006440, 87778742550",
    "schedule": "Пн-Пт – 10:00 – 17:00",
    "lunch": "13:00 – 14:00"
  },
  {
    "id": 167,
    "group": 14,
    "region": "Баянауыл ауданы",
    "fio": "Айтбаев Тоқпан Әкімбекұлы",
    "address": "Павлодар обл. Баянауыл ауданы, Баянауыл ауылы, Солтаналин көш., 23",
    "email": "Akky10.01@mail.ru",
    "phone": "87775369004, 87184092167",
    "schedule": "Пн-Пт – 10:00 – 17:00",
    "lunch": "13:00 – 14:00"
  },
  {
    "id": 168,
    "group": 14,
    "region": "Железин ауданы",
    "fio": "Дүйсембаев Рустам Серікбайұлы",
    "address": "Павлодар обл. Железин ауданы, Железинка ауылы, Трусов көш., 7/1",
    "email": "d_r_s72@mail.ru",
    "phone": "87779359036",
    "schedule": "Пн-Пт – 10:00 – 17:00",
    "lunch": "13:00 – 14:00"
  },
  {
    "id": 169,
    "group": 14,
    "region": "Ертіс ауданы",
    "fio": "Әбенов Қанат Өсербайұлы",
    "address": "Павлодар обл. Ертіс ауданы, Ертіс ауылы, Бөгенбай көш., 110",
    "email": "Abenovk82@mail.ru",
    "phone": "87051527439, 87183221673",
    "schedule": "Пн-Пт – 10:00 – 17:00",
    "lunch": "13:00 – 14:00"
  },
  {
    "id": 170,
    "group": 14,
    "region": "Май ауданы",
    "fio": "Сәрсекеев Нұрлан Қайырбекұлы",
    "address": "Павлодар обл. Май ауданы, Көктөбе ауылы, Уәлиханов көш., 12-2",
    "email": "Nurlansarsekeev.65@mail.ru",
    "phone": "87057083340",
    "schedule": "Пн-Пт – 10:00 – 17:00",
    "lunch": "13:00 – 14:00"
  },
  {
    "id": 171,
    "group": 14,
    "region": "Тереңкөл ауданы",
    "fio": "Байсегіров Омархан Ерғалиұлы",
    "address": "Павлодар қ., Марғұлан көш., 99, 33-пәтер",
    "email": "beysegurov@mail.ru",
    "phone": "87474992912",
    "schedule": "Пн-Пт – 10:00 – 17:00",
    "lunch": "13:00 – 14:00"
  },
  {
    "id": 172,
    "group": 14,
    "region": "Успен ауданы",
    "fio": "Калина Александр Валерьевич",
    "address": "Павлодар обл. Успен ауданы, Успенка ауылы, Яременко көш., 9Б, 2-пәтер",
    "email": "uspjurist@mail.ru",
    "phone": "87779756773",
    "schedule": "Пн-Пт – 10:00 – 17:00",
    "lunch": "13:00 – 14:00"
  },
  {
    "id": 173,
    "group": 14,
    "region": "Шарбақты ауданы",
    "fio": "Сәдуақасова Гүлжан Бектемірқызы",
    "address": "Павлодар обл. Шарбақты ауданы, Шарбақты ауылы, Чайковский көш., 43",
    "email": "Miss.vost@mail.ru",
    "phone": "87718999919",
    "schedule": "Пн-Пт – 10:00 – 17:00",
    "lunch": "13:00 – 14:00"
  },
  {
    "id": 173,
    "group": 14,
    "region": "Шарбақты ауданы",
    "fio": "Сәдуақасова Гүлжан Бектемірқызы",
    "address": "Павлодар обл. Шарбақты ауданы, Шарбақты ауылы, Чайковский көш., 43",
    "email": "Miss.vost@mail.ru",
    "phone": "87718999919",
    "schedule": "Пн-Пт – 10:00 – 17:00",
    "lunch": "13:00 – 14:00"
  },
  {
    "id": 173,
    "group": 14,
    "region": "Шарбақты ауданы",
    "fio": "Сәдуақасова Гүлжан Бектемірқызы",
    "address": "Павлодар обл. Шарбақты ауданы, Шарбақты ауылы, Чайковский көш., 43",
    "email": "Miss.vost@mail.ru",
    "phone": "87718999919",
    "schedule": "Пн-Пт – 10:00 – 17:00",
    "lunch": "13:00 – 14:00"
  },
  {
    "id": 174,
    "group": 14,
    "region": "Павлодар ауданы",
    "fio": "Сағандықова Ажар Бахытқызы",
    "address": "Павлодар обл. Павлодар қ. Павлодар облыстық Азаматтық Альянс үйі, Лермонтов көш., 44.",
    "email": "azar_71@mail.ru",
    "phone": "87017078716",
    "schedule": "Пн-Пт – 10:00 – 17:00",
    "lunch": "13:00 – 14:00"
  },
  {
    "id": 175,
    "group": 15,
    "region": "Петропавл қ.",
    "fio": "Оразова Динара Болатқызы",
    "address": "Назарбаев көш., 69А",
    "email": " ",
    "phone": "87789035954",
    "schedule": "Пн-Пт – 10:00 – 17:00",
    "lunch": "13:00 – 14:00"
  },
  {
    "id": 176,
    "group": 15,
    "region": "Аққайың ауданы",
    "fio": "Аппасова Әлия Айтоллақызы",
    "address": "Зеленая көш., 63",
    "email": " ",
    "phone": "87028660417",
    "schedule": "Пн-Пт – 10:00 – 17:00",
    "lunch": "13:00 – 14:00"
  },
  {
    "id": 177,
    "group": 15,
    "region": "Айыртау ауданы",
    "fio": "Водянова Раиса Васильевна",
    "address": "Саумалкөл ауыды, УӘлиханов көш., 44А",
    "email": " ",
    "phone": "77021686342",
    "schedule": "Пн-Пт – 10:00 – 17:00",
    "lunch": "13:00 – 14:00"
  },
  {
    "id": 178,
    "group": 15,
    "region": "Ақжар ауданы",
    "fio": "Молдабаева Махаббат Борамбайқызы",
    "address": "Талшық ауылы, Целинная көш., 13",
    "email": " ",
    "phone": "87027220694, 87154621605",
    "schedule": "Пн-Пт – 10:00 – 17:00",
    "lunch": "13:00 – 14:00"
  },
  {
    "id": 179,
    "group": 15,
    "region": "Жамбыл",
    "fio": "Тұяқов Бегас Асқарұлы",
    "address": "Уәлиханов ауданы, Кішкенекөл ауылы, Достық көш",
    "email": " ",
    "phone": "887779239433",
    "schedule": "Пн-Пт – 10:00 – 17:00",
    "lunch": "13:00 – 14:00"
  },
  {
    "id": 180,
    "group": 15,
    "region": "Есіл ауданы",
    "fio": "Николаев Юрий Александрович",
    "address": "Ленин көш., 4, 2-каб",
    "email": " ",
    "phone": "87773192515",
    "schedule": "Пн-Пт – 10:00 – 17:00",
    "lunch": "13:00 – 14:00"
  },
  {
    "id": 181,
    "group": 15,
    "region": "Қызылжар ауданы",
    "fio": "Гульмамедов Руслан Сабироглы",
    "address": "Бескөл ауылы, Институтская көш., 1, 103-каб.",
    "email": " ",
    "phone": "87711076777",
    "schedule": "Пн-Пт – 10:00 – 17:00",
    "lunch": "13:00 – 14:00"
  },
  {
    "id": 182,
    "group": 15,
    "region": "Мағжан Жұмабаев ауданы",
    "fio": "Меңдібаев Дамир Ерлікұлы",
    "address": "Мир көш., 12",
    "email": " ",
    "phone": "87153121146, 87153128105",
    "schedule": "Пн-Пт – 10:00 – 17:00",
    "lunch": "13:00 – 14:00"
  },
  {
    "id": 183,
    "group": 15,
    "region": "Мамлют ауданы",
    "fio": "Нұрсейітова Шолпан Габдрахманқызы",
    "address": "Мамлютка ауылы, Коммунальная көш., 27",
    "email": " ",
    "phone": "87056516279",
    "schedule": "Пн-Пт – 10:00 – 17:00",
    "lunch": "13:00 – 14:00"
  },
  {
    "id": 184,
    "group": 15,
    "region": "Ғ. Мүсірепов атындағы Новоишим ауылы",
    "fio": "Журавлев Юрий Григорьевич",
    "address": "Ғ. Мүсірепов атындағы аудан, Абылай хан көш.,11",
    "email": " ",
    "phone": "87027227418",
    "schedule": "Пн-Пт – 10:00 – 17:00",
    "lunch": "13:00 – 14:00"
  },
  {
    "id": 185,
    "group": 15,
    "region": "Шал ақын ауданы",
    "fio": "Есімова Данара Нұрланқызы",
    "address": "Сергевка қ., Шал ақын ауданы, Победа көш., 35.",
    "email": " ",
    "phone": "87717000019",
    "schedule": "Пн-Пт – 10:00 – 17:00",
    "lunch": "13:00 – 14:00"
  },
  {
    "id": 186,
    "group": 15,
    "region": "Солтүстік Қазақстан ауданы",
    "fio": "Тұралинов Амангелді Найманұлы",
    "address": "Нұрсултан Назарбаев көш., 161-үй",
    "email": " ",
    "phone": "87052559422",
    "schedule": "Пн-Пт – 10:00 – 17:00",
    "lunch": "13:00 – 14:00"
  },
  {
    "id": 187,
    "group": 15,
    "region": "Тимирязев ауданы",
    "fio": "Құсайынов Азамат Нұрмағанбетұлы",
    "address": " ",
    "email": " ",
    "phone": "87784086213",
    "schedule": "Пн-Пт – 10:00 – 17:00",
    "lunch": "13:00 – 14:00"
  },
  {
    "id": 188,
    "group": 15,
    "region": "Тайыншы ауданы",
    "fio": "Бесштанько Сергей Константинович",
    "address": " ",
    "email": " ",
    "phone": "87028660417",
    "schedule": "Пн-Пт – 10:00 – 17:00",
    "lunch": "13:00 – 14:00"
  },
  {
    "id": 189,
    "group": 15,
    "region": "Уәлиханов ауданы, Кішкенекөл ауылы",
    "fio": "Нұрсейітова Шолпан Габдрахманқызы",
    "address": " ",
    "email": " ",
    "phone": "87056516279",
    "schedule": "Пн-Пт – 10:00 – 17:00",
    "lunch": "13:00 – 14:00"
  },
  {
    "id": 190,
    "group": 13,
    "region": "Түркістан қ",
    "fio": "Көшербаева Гүлшат Нұрлыбайқызы",
    "address": "Түркістан облысы, Ерубаев көш., 168 Е 25-кеңсе",
    "email": " ",
    "phone": "+772533, 87014453590",
    "schedule": "Пн-Пт – 10:00 – 17:00",
    "lunch": "13:00 – 14:00"
  },
  {
    "id": 191,
    "group": 13,
    "region": "Түркістан қ",
    "fio": "Әлия Әлходжаева",
    "address": "Түркістан қаласы, Байбұрт көш., 8",
    "email": " ",
    "phone": "+77473150247",
    "schedule": "Пн-Пт – 10:00 – 17:00",
    "lunch": "13:00 – 14:00"
  },
  {
    "id": 192,
    "group": 13,
    "region": "Кентау қ.",
    "fio": "Тұрлыбекова Иемберген Есенгелдіұлы",
    "address": "Кентау қ. Абылайхан көш., 17",
    "email": " ",
    "phone": "8702068063",
    "schedule": "Пн-Пт – 10:00 – 17:00",
    "lunch": "13:00 – 14:00"
  },
  {
    "id": 193,
    "group": 13,
    "region": "Арыс қ.",
    "fio": "Күнқожаева Салтанат Жүзбайқызы",
    "address": "Арыс қ., Төле би көш., 2Б",
    "email": " ",
    "phone": "87715644925",
    "schedule": "Пн-Пт – 10:00 – 17:00",
    "lunch": "13:00 – 14:00"
  },
  {
    "id": 194,
    "group": 13,
    "region": "Бәйдібек ауданы",
    "fio": "Үкібасов Қонысбек Есембекұлы",
    "address": "Бәйдібек ауданы, Шаян ауылы, әкімдік ғимаратының кеңсесі",
    "email": " ",
    "phone": "+772548, 87026663553",
    "schedule": "Пн-Пт – 10:00 – 17:00",
    "lunch": "13:00 – 14:00"
  },
  {
    "id": 195,
    "group": 13,
    "region": "Қазығұрт ауданы",
    "fio": "Байжарқынов Мұсабек Жақанұлы",
    "address": "Қазығұрт ауданы, қазығұрт ауыды, Ш. Уәлиханов көш., н/ж, сот ғимараты",
    "email": " ",
    "phone": "87014453590",
    "schedule": "Пн-Пт – 10:00 – 17:00",
    "lunch": "13:00 – 14:00"
  },
  {
    "id": 196,
    "group": 13,
    "region": "Келес ауданы",
    "fio": "Бейсенов Артықбай",
    "address": "Келес ауданы, Абай ауылы, Қонаев, 38",
    "email": " ",
    "phone": "87016344422",
    "schedule": "Пн-Пт – 10:00 – 17:00",
    "lunch": "13:00 – 14:00"
  },
  {
    "id": 197,
    "group": 13,
    "region": "Сайрам ауданы",
    "fio": "Түкібаева Шолпан Мұратбекқызы",
    "address": "Сайрам ауданы, Ақсукент ауылы, Жандарбеков көш., 59 а",
    "email": " ",
    "phone": "87027787209",
    "schedule": "Пн-Пт – 10:00 – 17:00",
    "lunch": "13:00 – 14:00"
  },
  {
    "id": 198,
    "group": 13,
    "region": "Сарыағаш ауданы",
    "fio": "Садықбекова Жазира Тасполатқызы",
    "address": "Сарыағаш ауданы, Абай ауылы, Майлы қожа көш., н/ж",
    "email": " ",
    "phone": "87017859695",
    "schedule": "Пн-Пт – 10:00 – 17:00",
    "lunch": "13:00 – 14:00"
  },
  {
    "id": 199,
    "group": 13,
    "region": "Созақ ауданы",
    "fio": "Назарова Ира Султанхановна",
    "address": "Созақ ауданы, Шолаққорған ауылы, әкімдіктің ғимараты, Жібек жолы көш.",
    "email": " ",
    "phone": "877753671968",
    "schedule": "Пн-Пт – 10:00 – 17:00",
    "lunch": "13:00 – 14:00"
  },
  {
    "id": 200,
    "group": 13,
    "region": "Ордабасыц ауданы",
    "fio": "Тамырбаев Марат Амзейұлы",
    "address": "Ордабасы ауданы, Тамерлановка ауылы, әкімдік ғимаратының кеңсесі",
    "email": " ",
    "phone": "8701625547",
    "schedule": "Пн-Пт – 10:00 – 17:00",
    "lunch": "13:00 – 14:00"
  },
  {
    "id": 201,
    "group": 13,
    "region": "Отырар ауданы",
    "fio": "Тиметов Смахан Жорақұлы",
    "address": "Отырар ауданы, Шәуілдір ауылы, Қамбарбеков көш., 7, өз кеңсес",
    "email": " ",
    "phone": "8775319985",
    "schedule": "Пн-Пт – 10:00 – 17:00",
    "lunch": "13:00 – 14:00"
  },
  {
    "id": 202,
    "group": 13,
    "region": "Төле би ауданы",
    "fio": "Әлиева Салима Сүйеубайқызы",
    "address": "Төле би ауданы, Ленгір қаласы, Әйтеке би көш., 14",
    "email": " ",
    "phone": "87016488168",
    "schedule": "Пн-Пт – 10:00 – 17:00",
    "lunch": "13:00 – 14:00"
  },
  {
    "id": 203,
    "group": 13,
    "region": "Түлкібас ауданы",
    "fio": "Дүйсеқұлов Анарбай Қырықбайұлы",
    "address": "Түлкібас ауданы, Вановка ауылы, өз кеңсесінің ғимараты, заңгерлік кеңес беру",
    "email": " ",
    "phone": "87751050935",
    "schedule": "Пн-Пт – 10:00 – 17:00",
    "lunch": "13:00 – 14:00"
  },
  {
    "id": 204,
    "group": 13,
    "region": "Жетісай ауданы",
    "fio": "Егізбаев Алтай Өмірбекұлы",
    "address": "Жетісай қ., Айманов көш., 6/3",
    "email": " ",
    "phone": "87015944383",
    "schedule": "Пн-Пт – 10:00 – 17:00",
    "lunch": "13:00 – 14:00"
  },
  {
    "id": 204,
    "group": 13,
    "region": "Жетісай ауданы",
    "fio": "Егізбаев Алтай Өмірбекұлы",
    "address": "Жетісай қ., Айманов көш., 6/3",
    "email": " ",
    "phone": "87015944383",
    "schedule": "Пн-Пт – 10:00 – 17:00",
    "lunch": "13:00 – 14:00"
  },
  {
    "id": 205,
    "group": 13,
    "region": "Мақтаарал ауданы",
    "fio": "Байниязов Нұркен Келденбайұлы",
    "address": "Мақтаарал ауданы, Мырзакент ауылы, Мирзаходжаев көш., н/ж, стомемхана ғимараты",
    "email": " ",
    "phone": "87782901504",
    "schedule": "Пн-Пт – 10:00 – 17:00",
    "lunch": "13:00 – 14:00"
  },
  {
    "id": 206,
    "group": 13,
    "region": "Шардара ауданы",
    "fio": "Айдарбеков Әбілда Әуелбекұлы",
    "address": "Шардара ауданы, Абай көш., 20 ХҚКО ғимараты",
    "email": " ",
    "phone": "87021870191",
    "schedule": "Пн-Пт – 10:00 – 17:00",
    "lunch": "13:00 – 14:00"
  },
  {
    "id": 207,
    "group": 2,
    "region": "Алматы қ.",
    "fio": "Данилина Анна Викторовна",
    "address": "Шевченко көш., 111, 3-кеңсе Медиация орталығы және заңгерлік компания",
    "email": " ",
    "phone": "87715529914, 2930947",
    "schedule": "Пн-Пт – 10:00 – 17:00",
    "lunch": "13:00 – 14:00"
  },
  {
    "id": 208,
    "group": 17,
    "region": "Шымкент қаласы",
    "fio": "Оңғаров Әбілхан Хасенұлы",
    "address": "Шымкент қаласы, Байтұрсынов көш., 86/10 1-қабат, 2-кабинет",
    "email": " ",
    "phone": "+77025282525",
    "schedule": "Пн-Пт – 10:00 – 17:00",
    "lunch": "13:00 – 14:00"
  },
  {
    "id": 209,
    "group": 3,
    "region": "Нұр-Сұлтан қ.",
    "fio": "Әлин Қанат Төлеубекұлы",
    "address": "Нұр-Сұлтан қ., Достық көш., 13, 223-каб.",
    "email": " ",
    "phone": " ",
    "schedule": "Пн-Пт – 10:00 – 17:00",
    "lunch": "13:00 – 14:00"
  },
  {
    "id": 210,
    "group": 3,
    "region": "Нұр-Сұлтан қ.",
    "fio": " ",
    "address": "Нұр-Сұлтан қ., Мәмбетов көш., 16, 1-корпус, 18,1-кеңсе",
    "email": " ",
    "phone": " ",
    "schedule": "Пн-Пт – 10:00 – 17:00",
    "lunch": "13:00 – 14:00"
  }
]